<?xml version="1.0" encoding="UTF-8"?>
<testsuites name="Mocha Tests" time="2.0060" tests="1" failures="1">
  <testsuite name="Root Suite" timestamp="2024-05-26T09:39:59" tests="0" time="0.0000" failures="0">
  </testsuite>
  <testsuite name="TEST" timestamp="2024-05-26T09:39:59" tests="1" file="/home/andre/Enseignement/Groupes/2024.03.18 POE DevOps/hello-world-angular/tests/selenium/test.spec.js" time="2.0050" failures="1">
    <testcase name="TEST Home page contains hello world" time="2.0040" classname="Home page contains hello world">
      <failure message="Timeout of 2000ms exceeded. For async tests and hooks, ensure &quot;done()&quot; is called; if returning a Promise, ensure it resolves. (/home/andre/Enseignement/Groupes/2024.03.18 POE DevOps/hello-world-angular/tests/selenium/test.spec.js)" type="Error"><![CDATA[Error: Timeout of 2000ms exceeded. For async tests and hooks, ensure "done()" is called; if returning a Promise, ensure it resolves. (/home/andre/Enseignement/Groupes/2024.03.18 POE DevOps/hello-world-angular/tests/selenium/test.spec.js)
    at listOnTimeout (node:internal/timers:573:17)
    at process.processTimers (node:internal/timers:514:7)]]></failure>
    </testcase>
  </testsuite>
</testsuites>